[
    {
        "name": "id",
        "dbType": "increments",
        "htmlType": "",
        "validations": "",
        "searchable": false,
        "fillable": false,
        "primary": true,
        "inForm": false,
        "inIndex": false
    },
    {
        "name": "name",
        "dbType": "string,45",
        "htmlType": "text",
        "validations": "required",
        "searchable": true,
        "fillable": true,
        "primary": false,
        "inForm": true,
        "inIndex": true
    },
    {
        "name": "email",
        "dbType": "string:unique",
        "htmlType": "email",
        "validations": "required",
        "searchable": true,
        "fillable": true,
        "primary": false,
        "inForm": true,
        "inIndex": true
    },
    {
        "name": "password",
        "dbType": "string",
        "htmlType": "password",
        "validations": "required",
        "searchable": false,
        "fillable": true,
        "inForm": true,
        "inIndex": false
    },
    {
        "name": "phone",
        "dbType": "string:nullable",
        "htmlType": "text",
        "validations": "required",
        "searchable": true,
        "fillable": true,
        "primary": false,
        "inForm": true,
        "inIndex": true
    },
    {
        "name": "picture",
        "dbType": "string:nullable",
        "htmlType": "text",
        "validations": "required",
        "searchable": false,
        "fillable": true,
        "primary": false,
        "inForm": true,
        "inIndex": true
    },
    {
        "name": "enterprise_id",
        "dbType": "integer:nullable:unsigned:foreign,enterprises,id",
        "htmlType": "text",
        "relation": "mt1,Enterprise,enterprise_id,id",
        "searchable": false,
        "fillable": false,
        "primary": false,
        "inForm": false,
        "inIndex": true
    },
    {
        "name": "client_id",
        "dbType": "integer:nullable:unsigned:foreign,clients,id",
        "htmlType": "select, Client:id",
        "relation": "mt1,Client,client_id,id",
        "searchable": false,
        "fillable": true,
        "primary": false,
        "inForm": true,
        "inIndex": true
    },
    {
        "name": "remember_token",
        "dbType": "rememberToken",
        "htmlType": "",
        "validations": "",
        "searchable": false,
        "fillable": false,
        "primary": false,
        "inForm": false,
        "inIndex": false
    },   
    {
        "name": "created_at",
        "dbType": "timestamp",
        "htmlType": "",
        "validations": "",
        "searchable": false,
        "fillable": false,
        "primary": false,
        "inForm": false,
        "inIndex": false
    },
    {
        "name": "updated_at",
        "dbType": "timestamp",
        "htmlType": "",
        "validations": "",
        "searchable": false,
        "fillable": false,
        "primary": false,
        "inForm": false,
        "inIndex": false
    }
]